{
  "peliculas": [
    {
      "titulo":"Shrek",
      "imagen":"img/s-1.jfif",
      "descripcion":"Lorem ipsum dolor sit amet, consectetur adipisicing elit. Vitae"
    },
    {
      "titulo":"Spider Man",
      "imagen":"img/h-a-1.jfif",
      "descripcion":"Lorem ipsum dolor sit amet, consectetur adipisicing elit. Vitae"
    },
    {
      "titulo":"Spider Man 2",
      "imagen":"img/h-a-2.jpg",
      "descripcion":"Lorem ipsum dolor sit amet, consectetur adipisicing elit. Vitae"
    },
    {
      "titulo":"Spider Man 3",
      "imagen":"img/h-a-3.jfif",
      "descripcion":"Lorem ipsum dolor sit amet, consectetur adipisicing elit. Vitae"
    },
    {
      "titulo":"Shrek",
      "imagen":"img/s-1.jfif",
      "descripcion":"Lorem ipsum dolor sit amet, consectetur adipisicing elit. Vitae"
    },
    {
      "titulo":"Spider Man",
      "imagen":"img/h-a-1.jfif",
      "descripcion":"Lorem ipsum dolor sit amet, consectetur adipisicing elit. Vitae"
    },
    {
      "titulo":"Spider Man 2",
      "imagen":"img/h-a-2.jpg",
      "descripcion":"Lorem ipsum dolor sit amet, consectetur adipisicing elit. Vitae"
    },
    {
      "titulo":"Spider Man 3",
      "imagen":"img/h-a-3.jfif",
      "descripcion":"Lorem ipsum dolor sit amet, consectetur adipisicing elit. Vitae"
    },
    {
      "titulo":"Shrek",
      "imagen":"img/s-1.jfif",
      "descripcion":"Lorem ipsum dolor sit amet, consectetur adipisicing elit. Vitae"
    },
    {
      "titulo":"Spider Man",
      "imagen":"img/h-a-1.jfif",
      "descripcion":"Lorem ipsum dolor sit amet, consectetur adipisicing elit. Vitae"
    },
    {
      "titulo":"Spider Man 2",
      "imagen":"img/h-a-2.jpg",
      "descripcion":"Lorem ipsum dolor sit amet, consectetur adipisicing elit. Vitae"
    },
    {
      "titulo":"Spider Man 3",
      "imagen":"img/h-a-3.jfif",
      "descripcion":"Lorem ipsum dolor sit amet, consectetur adipisicing elit. Vitae"
    },
    {
      "titulo":"Shrek",
      "imagen":"img/s-1.jfif",
      "descripcion":"Lorem ipsum dolor sit amet, consectetur adipisicing elit. Vitae"
    },
    {
      "titulo":"Spider Man",
      "imagen":"img/h-a-1.jfif",
      "descripcion":"Lorem ipsum dolor sit amet, consectetur adipisicing elit. Vitae"
    },
    {
      "titulo":"Spider Man 2",
      "imagen":"img/h-a-2.jpg",
      "descripcion":"Lorem ipsum dolor sit amet, consectetur adipisicing elit. Vitae"
    },
    {
      "titulo":"Spider Man 3",
      "imagen":"img/h-a-3.jfif",
      "descripcion":"Lorem ipsum dolor sit amet, consectetur adipisicing elit. Vitae"
    },
    {
      "titulo":"Shrek",
      "imagen":"img/s-1.jfif",
      "descripcion":"Lorem ipsum dolor sit amet, consectetur adipisicing elit. Vitae"
    },
    {
      "titulo":"Spider Man",
      "imagen":"img/h-a-1.jfif",
      "descripcion":"Lorem ipsum dolor sit amet, consectetur adipisicing elit. Vitae"
    },
    {
      "titulo":"Spider Man 2",
      "imagen":"img/h-a-2.jpg",
      "descripcion":"Lorem ipsum dolor sit amet, consectetur adipisicing elit. Vitae"
    },
    {
      "titulo":"Spider Man 3",
      "imagen":"img/h-a-3.jfif",
      "descripcion":"Lorem ipsum dolor sit amet, consectetur adipisicing elit. Vitae"
    },
    {
      "titulo":"Shrek",
      "imagen":"img/s-1.jfif",
      "descripcion":"Lorem ipsum dolor sit amet, consectetur adipisicing elit. Vitae"
    },
    {
      "titulo":"Spider Man",
      "imagen":"img/h-a-1.jfif",
      "descripcion":"Lorem ipsum dolor sit amet, consectetur adipisicing elit. Vitae"
    },
    {
      "titulo":"Spider Man 2",
      "imagen":"img/h-a-2.jpg",
      "descripcion":"Lorem ipsum dolor sit amet, consectetur adipisicing elit. Vitae"
    },
    {
      "titulo":"Spider Man 3",
      "imagen":"img/h-a-3.jfif",
      "descripcion":"Lorem ipsum dolor sit amet, consectetur adipisicing elit. Vitae"
    },
    {
      "titulo":"Shrek",
      "imagen":"img/s-1.jfif",
      "descripcion":"Lorem ipsum dolor sit amet, consectetur adipisicing elit. Vitae"
    },
    {
      "titulo":"Spider Man",
      "imagen":"img/h-a-1.jfif",
      "descripcion":"Lorem ipsum dolor sit amet, consectetur adipisicing elit. Vitae"
    },
    {
      "titulo":"Spider Man 2",
      "imagen":"img/h-a-2.jpg",
      "descripcion":"Lorem ipsum dolor sit amet, consectetur adipisicing elit. Vitae"
    },
    {
      "titulo":"Spider Man 3",
      "imagen":"img/h-a-3.jfif",
      "descripcion":"Lorem ipsum dolor sit amet, consectetur adipisicing elit. Vitae"
    },
    {
      "titulo":"Shrek",
      "imagen":"img/s-1.jfif",
      "descripcion":"Lorem ipsum dolor sit amet, consectetur adipisicing elit. Vitae"
    },
    {
      "titulo":"Spider Man",
      "imagen":"img/h-a-1.jfif",
      "descripcion":"Lorem ipsum dolor sit amet, consectetur adipisicing elit. Vitae"
    },
    {
      "titulo":"Spider Man 2",
      "imagen":"img/h-a-2.jpg",
      "descripcion":"Lorem ipsum dolor sit amet, consectetur adipisicing elit. Vitae"
    },
    {
      "titulo":"Spider Man 3",
      "imagen":"img/h-a-3.jfif",
      "descripcion":"Lorem ipsum dolor sit amet, consectetur adipisicing elit. Vitae"
    },
    {
      "titulo":"Shrek",
      "imagen":"img/s-1.jfif",
      "descripcion":"Lorem ipsum dolor sit amet, consectetur adipisicing elit. Vitae"
    },
    {
      "titulo":"Spider Man",
      "imagen":"img/h-a-1.jfif",
      "descripcion":"Lorem ipsum dolor sit amet, consectetur adipisicing elit. Vitae"
    },
    {
      "titulo":"Spider Man 2",
      "imagen":"img/h-a-2.jpg",
      "descripcion":"Lorem ipsum dolor sit amet, consectetur adipisicing elit. Vitae"
    },
    {
      "titulo":"Spider Man 3",
      "imagen":"img/h-a-3.jfif",
      "descripcion":"Lorem ipsum dolor sit amet, consectetur adipisicing elit. Vitae"
    }
  ]
}